{
  "navigationBarTitleText": "账单列表",
  "navigationBarBackgroundColor": "#1E90FF",
  "navigationBarTextStyle": "white",
  "enablePullDownRefresh": true,
  "onReachBottomDistance":50, 
  "backgroundTextStyle": "dark"
}